<?xml version="1.0" standalone="no"?>
<!DOCTYPE svg PUBLIC "-//W3C//DTD SVG 20010904//EN"
 "http://www.w3.org/TR/2001/REC-SVG-20010904/DTD/svg10.dtd">
<svg version="1.0" xmlns="http://www.w3.org/2000/svg"
 width="1704.000000pt" height="1704.000000pt" viewBox="0 0 1704.000000 1704.000000"
 preserveAspectRatio="xMidYMid meet">
<metadata>
Created by potrace 1.14, written by Peter Selinger 2001-2017
</metadata>
<g transform="translate(0.000000,1704.000000) scale(0.100000,-0.100000)"
fill="#000000" stroke="none">
<path d="M314 12799 c-3 -5 -12 -9 -19 -9 -30 0 -127 -54 -169 -94 -24 -24
-55 -67 -68 -97 -45 -99 -53 -150 -53 -359 0 -155 5 -249 21 -450 3 -30 5 -72
5 -92 0 -21 3 -38 7 -38 4 0 7 -28 8 -63 0 -34 3 -87 7 -117 3 -30 9 -89 12
-130 10 -110 13 -145 15 -145 1 0 3 -25 5 -55 4 -62 14 -170 20 -215 3 -16 7
-57 10 -90 4 -33 8 -80 11 -105 3 -25 6 -63 8 -85 7 -72 17 -179 22 -215 7
-62 14 -124 20 -175 3 -27 7 -66 9 -85 2 -19 6 -57 9 -85 2 -27 7 -66 10 -85
3 -19 8 -62 11 -95 3 -33 8 -73 10 -90 2 -16 6 -55 9 -85 3 -30 7 -71 10 -90
10 -62 21 -181 33 -330 7 -96 7 -778 0 -935 -11 -234 -17 -351 -22 -405 -3
-30 -8 -100 -11 -155 -3 -55 -7 -120 -9 -145 -2 -25 -6 -85 -9 -135 -3 -49 -8
-115 -11 -145 -3 -30 -8 -89 -11 -130 -3 -41 -7 -102 -10 -135 -3 -33 -7 -80
-9 -105 -6 -80 -18 -234 -19 -252 0 -10 -3 -18 -6 -18 -3 0 -5 -24 -6 -53 0
-46 -6 -125 -19 -267 -2 -25 -6 -73 -9 -107 -4 -59 -11 -122 -22 -223 -3 -25
-7 -72 -10 -105 -2 -33 -6 -82 -9 -110 -3 -27 -7 -77 -10 -110 -2 -33 -7 -85
-10 -115 -4 -30 -8 -80 -11 -110 -3 -30 -7 -75 -9 -100 -8 -94 -16 -176 -20
-215 -21 -208 -27 -585 -12 -680 5 -27 9 -57 9 -65 1 -29 57 -135 85 -162 98
-92 262 -130 407 -92 33 9 69 17 78 19 9 2 27 9 40 16 13 7 23 11 23 10 0 -1
13 2 28 8 16 6 31 11 34 11 6 0 28 10 235 104 31 14 62 26 67 26 6 0 11 5 11
10 0 6 5 10 11 10 6 0 175 82 377 182 202 100 370 181 375 180 4 -1 7 2 7 7 0
5 12 12 26 15 29 8 76 54 120 118 16 24 32 45 35 48 3 3 32 41 64 85 32 44 61
82 64 85 4 3 22 26 41 53 19 26 59 78 88 115 29 37 65 85 80 107 15 22 35 47
44 56 10 9 18 20 18 24 0 7 62 89 80 105 3 3 10 13 15 22 29 47 209 278 218
278 6 0 8 3 4 6 -3 3 31 54 76 112 45 59 90 118 99 132 23 34 171 227 203 265
14 17 33 42 43 57 19 29 133 180 142 188 3 3 17 21 30 40 13 19 27 37 30 40 3
3 18 23 35 45 16 22 31 42 34 45 4 3 20 25 36 50 17 25 35 50 41 55 6 6 71 89
144 185 73 96 145 189 159 206 14 18 42 51 61 75 60 74 111 122 119 113 5 -5
61 -112 126 -239 65 -126 137 -266 160 -310 23 -44 79 -152 125 -240 45 -88
119 -230 163 -315 44 -85 96 -186 116 -225 20 -38 41 -73 46 -77 6 -4 6 -8 1
-8 -5 0 -4 -6 2 -13 6 -7 33 -55 60 -107 78 -150 101 -192 112 -205 5 -6 7
-15 3 -18 -3 -4 -2 -7 4 -7 6 0 16 -12 22 -27 11 -30 45 -91 131 -238 29 -49
58 -99 64 -110 56 -99 119 -176 147 -181 8 -1 28 -5 44 -9 44 -9 213 -19 342
-19 62 -1 113 -3 113 -6 0 -7 442 -11 1315 -12 930 -2 1006 2 1093 54 50 30
91 25 209 -28 59 -26 110 -50 113 -53 3 -3 54 -31 115 -61 l110 -55 190 1
c293 1 1140 14 1430 21 143 3 295 7 337 7 43 1 78 5 78 9 0 4 8 3 19 -2 10 -6
21 -7 25 -4 3 4 25 7 49 8 23 1 74 5 112 9 60 6 92 11 195 31 8 2 16 4 18 5 1
2 5 3 10 5 51 14 62 19 62 28 0 6 3 7 6 4 7 -7 35 12 89 57 17 14 35 30 41 35
14 11 52 23 84 27 14 1 25 3 25 4 0 1 38 3 85 5 114 4 164 11 257 34 74 19
229 77 276 103 12 7 24 13 27 13 5 1 27 14 105 64 22 14 73 54 114 89 101 87
111 90 311 97 274 10 417 16 450 19 19 2 72 7 116 10 45 4 92 9 105 11 29 6
92 19 99 20 55 13 394 231 553 357 27 21 52 38 56 38 3 0 17 10 31 23 14 13
39 32 55 42 17 11 37 25 45 32 8 8 33 27 55 43 22 16 46 35 53 40 6 6 42 34
80 62 37 28 79 60 93 72 14 11 38 30 54 41 15 11 54 41 86 68 32 26 61 47 65
47 4 0 14 8 23 18 9 9 34 31 56 47 22 16 45 34 52 40 19 16 309 241 338 263 6
4 37 28 70 53 68 52 184 129 196 129 12 0 89 -84 89 -97 0 -7 4 -13 8 -13 5 0
40 -43 78 -95 38 -52 72 -95 76 -95 5 0 8 -5 8 -10 0 -6 17 -34 38 -63 21 -29
61 -83 87 -122 27 -38 53 -74 57 -80 5 -5 22 -28 38 -50 147 -196 216 -260
355 -324 114 -53 167 -65 295 -64 102 0 150 5 150 13 0 3 9 6 20 7 35 3 133
65 185 117 53 54 104 139 107 181 1 14 5 25 8 25 3 0 6 10 6 23 1 12 4 47 7
77 13 129 18 194 22 277 2 48 5 88 5 88 1 0 3 56 6 125 3 69 7 172 9 230 27
708 28 2054 1 2415 -6 85 -15 141 -32 205 -8 30 -16 60 -17 66 -6 27 -81 143
-120 185 -92 100 -245 178 -397 204 -123 22 -278 -11 -374 -78 -94 -66 -238
-230 -356 -407 -24 -36 -47 -66 -52 -68 -4 -2 -8 -8 -8 -13 0 -8 -67 -113 -97
-154 -5 -5 -26 -37 -47 -70 -22 -33 -59 -86 -83 -117 -41 -53 -46 -57 -66 -45
-20 11 -105 74 -117 87 -3 3 -27 23 -55 45 -27 22 -66 54 -85 72 -19 17 -46
41 -60 53 -33 29 -216 197 -257 236 -18 18 -33 31 -33 29 0 -1 -19 16 -43 39
-41 38 -126 116 -241 217 -27 24 -62 55 -77 69 -45 41 -142 127 -169 150 -14
12 -41 36 -60 53 -19 18 -62 55 -95 82 -33 28 -69 59 -81 70 -11 11 -41 36
-65 57 -24 20 -54 44 -65 55 -12 10 -38 31 -57 46 -20 16 -54 44 -76 63 -22
20 -42 35 -45 35 -3 0 -24 18 -47 40 -23 21 -45 39 -50 39 -4 0 -15 8 -25 18
-19 19 -23 22 -160 113 -131 87 -184 119 -274 165 -41 22 -76 42 -78 47 -2 4
-11 7 -21 7 -9 0 -21 4 -27 8 -7 7 -136 64 -229 101 -11 5 -33 14 -49 20 -30
12 -204 69 -234 77 -9 2 -69 18 -132 35 -63 17 -124 32 -135 35 -11 2 -45 9
-75 15 -30 7 -64 13 -75 15 -11 1 -20 3 -20 4 0 2 -21 6 -70 14 -22 4 -69 11
-105 17 -36 6 -81 13 -100 15 -35 5 -51 7 -150 18 -30 4 -68 9 -85 11 -52 7
-137 15 -210 20 -38 3 -104 8 -145 11 -41 3 -105 7 -142 8 -37 1 -70 5 -74 8
-4 4 -14 3 -24 -2 -10 -5 -20 -7 -23 -4 -10 10 -232 15 -692 15 -580 0 -1131
-7 -1144 -15 -5 -4 -12 -2 -16 3 -4 7 -15 7 -30 1 -17 -6 -25 -6 -25 1 0 6 -5
7 -11 4 -16 -10 -109 -12 -109 -2 0 4 -5 5 -12 1 -17 -11 -58 -11 -58 -1 0 4
-5 5 -11 1 -17 -10 -89 -11 -89 -1 0 4 -5 5 -11 2 -17 -11 -59 -13 -65 -3 -3
4 -10 6 -15 2 -16 -9 -80 -11 -85 -2 -3 5 -14 4 -24 -2 -12 -6 -21 -7 -25 0
-3 6 -15 6 -29 0 -13 -5 -27 -6 -30 -3 -8 9 -2322 10 -2364 2 -17 -4 -34 -4
-36 0 -5 8 -70 6 -85 -3 -5 -4 -12 -2 -16 4 -4 6 -12 7 -23 1 -9 -5 -26 -5
-38 -1 -12 5 -25 6 -28 3 -3 -3 -81 -8 -173 -10 -179 -4 -338 -10 -338 -12 0
-1 -28 -4 -62 -6 -108 -8 -151 -37 -258 -175 -22 -29 -45 -57 -51 -64 -13 -13
-19 -23 -182 -267 -178 -268 -202 -305 -202 -319 0 -6 -3 -10 -8 -10 -4 0 -16
-17 -27 -37 -11 -21 -22 -40 -25 -43 -8 -6 -101 -162 -119 -198 -7 -15 -21
-36 -30 -47 -9 -11 -27 -40 -41 -65 -13 -25 -26 -47 -29 -50 -6 -5 -22 -33
-45 -75 -6 -11 -41 -70 -79 -131 -37 -62 -67 -117 -67 -123 0 -6 -3 -11 -8
-11 -4 0 -12 -8 -17 -19 -41 -76 -57 -101 -68 -101 -12 0 -127 119 -127 132 0
5 -9 18 -20 31 -11 12 -80 110 -154 217 -74 107 -139 200 -145 207 -6 7 -11
15 -11 19 0 4 -21 36 -47 73 -27 36 -52 73 -58 82 -27 43 -341 499 -360 522
-8 9 -15 20 -15 23 0 2 -5 10 -10 17 -6 7 -61 82 -122 167 -62 85 -116 157
-120 158 -4 2 -8 8 -8 14 0 5 -6 15 -12 22 -7 7 -22 25 -33 40 -11 16 -25 33
-30 40 -6 6 -38 45 -71 86 -111 136 -206 219 -299 259 -11 5 -63 29 -116 55
-53 25 -99 46 -102 46 -3 0 -34 13 -69 29 -119 54 -227 101 -234 101 -3 0 -20
6 -37 14 -55 25 -269 112 -347 141 -41 15 -88 33 -105 41 -16 7 -79 31 -140
54 -60 23 -119 45 -130 50 -11 5 -31 12 -45 16 -37 11 -34 10 -191 63 -80 27
-158 52 -175 55 -16 3 -46 9 -66 15 -21 5 -38 7 -38 4 0 -3 -6 -1 -12 5 -16
12 -256 13 -264 1z m12507 -2609 c34 -17 69 -59 71 -84 0 -12 2 -28 3 -36 2
-23 -23 -68 -44 -80 -26 -13 -87 -13 -114 1 -47 24 -77 69 -79 116 -2 39 2 49
28 73 25 21 39 26 71 24 23 -1 51 -8 64 -14z"/>
</g>
</svg>
